CONSTANd vs median sweeping for Data-driven analysis of isobarically labeled proteomic data.
…
# switch to wide format
dat.unit.w <- lapply(dat.unit.l, function(x) {
  pivot_wider(data = x, id_cols=-one_of(c('Condition', 'BioReplicate')), names_from=Channel, values_from=response)
})
dat.norm.w <- emptyList(names(dat.unit.w))

2.1 median sweeping (1)

# subtract the spectrum median log2intensity from the observed log2intensities
dat.norm.w$median_sweeping <- dat.unit.w$median_sweeping
dat.norm.w$median_sweeping[,channelNames] <- dat.norm.w$median_sweeping[,channelNames] %>% sweep(1, apply(.[,channelNames], 1, median, na.rm=T))
dat.norm.w$median_sweeping

## # A tibble: 58,028 x 23
##    Mixture TechRepMixture Run   Protein Peptide    RT Charge PTM   TotalIntensity Ions.Score
##    <fct>   <fct>          <fct> <fct>   <fct>   <dbl> <fct>  <fct>          <dbl>      <int>
##  1 Mixtur~ 1              Mixt~ P21291  [K].gF~ 145.  2      N-Te~        394658.         65
##  2 Mixtur~ 1              Mixt~ P30511  [K].wA~ 137.  2      N-Te~        180359.         27
##  3 Mixtur~ 1              Mixt~ P02787~ [K].sA~ 149.  3      N-Te~        507218.         35
##  4 Mixtur~ 1              Mixt~ Q9UBQ5  [K].iD~ 202.  2      N-Te~        120944.         72
##  5 Mixtur~ 1              Mixt~ Q5H9R7  [R].tG~ 107.  2      N-Te~         99098.         23
##  6 Mixtur~ 1              Mixt~ P43490  [K].nA~  99.8 3      N-Te~        497023.         15
##  7 Mixtur~ 1              Mixt~ P43897  [R].fE~ 113.  2      N-Te~        101444.         66
##  8 Mixtur~ 1              Mixt~ Q6XQN6  [R].lQ~ 190.  3      N-Te~        104782.         10
##  9 Mixtur~ 1              Mixt~ P49327  [R].dL~ 215.  3      N-Te~         19505.         53
## 10 Mixtur~ 1              Mixt~ Q02790  [K].sN~  58.8 2      N-Te~         29324.         67
## # ... with 58,018 more rows, and 13 more variables: DeltaMZ <dbl>, isoInterOk <lgl>, noNAs <lgl>,
## #   onehit.protein <lgl>, shared.peptide <lgl>, `127C` <dbl>, `127N` <dbl>, `128C` <dbl>,
## #   `128N` <dbl>, `129C` <dbl>, `129N` <dbl>, `130C` <dbl>, `130N` <dbl>

2.2 CONSTANd

Now lets apply CONSTANd to each Run separately, and then combine the results into a semi-wide dataframe again.

# dat.unit.l entries are in long format so all have same colnames and no channelNames
x.split <- split(dat.unit.w$CONSTANd, dat.unit.w$CONSTANd$Run)  # apply CONSTANd to each Run separately
x.split.norm  <- lapply(x.split, function(y) {
  y[,channelNames] <- CONSTANd(y[,channelNames])$normalized_data
  return(y)
})
dat.norm.w$CONSTANd <- bind_rows(x.split.norm)
dat.norm.w$CONSTANd

## # A tibble: 58,028 x 23
##    Mixture TechRepMixture Run   Protein Peptide    RT Charge PTM   TotalIntensity Ions.Score
##    <fct>   <fct>          <fct> <fct>   <fct>   <dbl> <fct>  <fct>          <dbl>      <int>
##  1 Mixtur~ 1              Mixt~ Q86X55  [R].lL~ 142.  2      N-Te~        221846.         28
##  2 Mixtur~ 1              Mixt~ P14868  [R].vT~ 160.  3      N-Te~        511550.         31
##  3 Mixtur~ 1              Mixt~ P49736  [R].gL~ 177.  3      N-Te~        259160.         28
##  4 Mixtur~ 1              Mixt~ P21333  [K].yG~ 150.  2      N-Te~       2070488.         46
##  5 Mixtur~ 1              Mixt~ O14745  [R].sV~  94.6 2      N-Te~        393964.         84
##  6 Mixtur~ 1              Mixt~ Q9H7Z7  [K].pN~ 184.  3      N-Te~        270518.         20
##  7 Mixtur~ 1              Mixt~ Q99873  [K].wL~ 190.  2      N-Te~        428734.         51
##  8 Mixtur~ 1              Mixt~ Q08379  [R].lE~  78.3 2      N-Te~         58853.         30
##  9 Mixtur~ 1              Mixt~ P62847  [K].tT~ 195.  2      N-Te~        788849.         46
## 10 Mixtur~ 1              Mixt~ Q9UG63  [K].lV~ 131.  2      N-Te~        375734.         61
## # ... with 58,018 more rows, and 13 more variables: DeltaMZ <dbl>, isoInterOk <lgl>, noNAs <lgl>,
## #   onehit.protein <lgl>, shared.peptide <lgl>, `127C` <dbl>, `127N` <dbl>, `128C` <dbl>,
## #   `128N` <dbl>, `129C` <dbl>, `129N` <dbl>, `130C` <dbl>, `130N` <dbl>
…
