CONSTANd vs medianSweeping for Data-driven analysis of isobarically labeled proteomic data.
…
# switch to wide format
dat.unit.w <- lapply(dat.unit.l, function(x) {
  pivot_wider(data = x, id_cols=-one_of(c('Condition', 'BioReplicate')), names_from=Channel, values_from=response)
})
dat.norm.w <- emptyList(names(dat.unit.w))

2.1 medianSweeping (1)

# subtract the spectrum median log2intensity from the observed log2intensities
dat.norm.w$medianSweeping <- dat.unit.w$medianSweeping
dat.norm.w$medianSweeping[,channelNames] <- dat.norm.w$medianSweeping[,channelNames] %>% sweep(1, apply(.[,channelNames], 1, median, na.rm=T))
dat.norm.w$medianSweeping

## # A tibble: 58,028 x 23
##    Mixture TechRepMixture Run   Protein Peptide    RT Charge PTM   TotalIntensity Ions.Score  DeltaMZ isoInterOk
##    <fct>   <fct>          <fct> <fct>   <fct>   <dbl> <fct>  <fct>          <dbl>      <int>    <dbl> <lgl>     
##  1 Mixtur~ 1              Mixt~ P21291  [K].gF~ 145.  2      N-Te~        398539.         65  5.20e-4 TRUE      
##  2 Mixtur~ 1              Mixt~ P30511  [K].wA~ 137.  2      N-Te~        183205.         27 -6.53e-3 TRUE      
##  3 Mixtur~ 1              Mixt~ P02787~ [K].sA~ 149.  3      N-Te~        505761.         35 -5.00e-5 TRUE      
##  4 Mixtur~ 1              Mixt~ Q9UBQ5  [K].iD~ 202.  2      N-Te~        121401.         72  1.19e-3 TRUE      
##  5 Mixtur~ 1              Mixt~ Q5H9R7  [R].tG~ 107.  2      N-Te~         99914.         23 -1.33e-3 TRUE      
##  6 Mixtur~ 1              Mixt~ P43490  [K].nA~  99.8 3      N-Te~        500038.         15  6.10e-4 TRUE      
##  7 Mixtur~ 1              Mixt~ P43897  [R].fE~ 113.  2      N-Te~        102360.         66  8.60e-4 TRUE      
##  8 Mixtur~ 1              Mixt~ Q6XQN6  [R].lQ~ 190.  3      N-Te~        106366.         10  3.30e-4 TRUE      
##  9 Mixtur~ 1              Mixt~ P49327  [R].dL~ 215.  3      N-Te~         19204.         53  6.10e-4 TRUE      
## 10 Mixtur~ 1              Mixt~ Q02790  [K].sN~  58.8 2      N-Te~         29855.         67 -4.50e-4 TRUE      
## # ... with 58,018 more rows, and 11 more variables: noNAs <lgl>, onehit.protein <lgl>, shared.peptide <lgl>,
## #   `127C` <dbl>, `127N` <dbl>, `128C` <dbl>, `128N` <dbl>, `129C` <dbl>, `129N` <dbl>, `130C` <dbl>, `130N` <dbl>

2.2 CONSTANd

Now lets apply CONSTANd to each Run separately, and then combine the results into a semi-wide dataframe again.

# dat.unit.l entries are in long format so all have same colnames and no channelNames
x.split <- split(dat.unit.w$CONSTANd, dat.unit.w$CONSTANd$Run)  # apply CONSTANd to each Run separately
x.split.norm  <- lapply(x.split, function(y) {
  y[,channelNames] <- CONSTANd(y[,channelNames])$normalized_data
  return(y)
})
dat.norm.w$CONSTANd <- bind_rows(x.split.norm)
dat.norm.w$CONSTANd

## # A tibble: 58,028 x 23
##    Mixture TechRepMixture Run   Protein Peptide    RT Charge PTM   TotalIntensity Ions.Score  DeltaMZ isoInterOk
##    <fct>   <fct>          <fct> <fct>   <fct>   <dbl> <fct>  <fct>          <dbl>      <int>    <dbl> <lgl>     
##  1 Mixtur~ 1              Mixt~ Q86X55  [R].lL~ 142.  2      N-Te~        238129.         28  0.00161 TRUE      
##  2 Mixtur~ 1              Mixt~ P14868  [R].vT~ 160.  3      N-Te~        545870.         31  0.00019 TRUE      
##  3 Mixtur~ 1              Mixt~ P49736  [R].gL~ 177.  3      N-Te~        276302.         28 -0.00038 TRUE      
##  4 Mixtur~ 1              Mixt~ P21333  [K].yG~ 150.  2      N-Te~       2217589.         46  0.00101 TRUE      
##  5 Mixtur~ 1              Mixt~ O14745  [R].sV~  94.6 2      N-Te~        422942.         84  0.00131 TRUE      
##  6 Mixtur~ 1              Mixt~ Q9H7Z7  [K].pN~ 184.  3      N-Te~        288735.         20  0.00001 TRUE      
##  7 Mixtur~ 1              Mixt~ Q99873  [K].wL~ 190.  2      N-Te~        457081.         51  0.00125 TRUE      
##  8 Mixtur~ 1              Mixt~ Q08379  [R].lE~  78.3 2      N-Te~         62324.         30  0.00204 TRUE      
##  9 Mixtur~ 1              Mixt~ P62847  [K].tT~ 195.  2      N-Te~        842492.         46  0.00120 TRUE      
## 10 Mixtur~ 1              Mixt~ Q9UG63  [K].lV~ 131.  2      N-Te~        402834.         61  0.00125 TRUE      
## # ... with 58,018 more rows, and 11 more variables: noNAs <lgl>, onehit.protein <lgl>, shared.peptide <lgl>,
## #   `127C` <dbl>, `127N` <dbl>, `128C` <dbl>, `128N` <dbl>, `129C` <dbl>, `129N` <dbl>, `130C` <dbl>, `130N` <dbl>
…
